LNCMI
cluster index : weight
47: 		18.592178770949722
151: 		8.715083798882683
54: 		5.374301675977654
308: 		3.7765363128491622
240: 		15.541899441340783


GreEN-ER
194: 		6.681564245810057
314: 		9.441340782122905
211: 		12.636871508379889
304: 		9.87709497206704
316: 		13.363128491620113

ZAC2
France

294: 		8.134078212290504
199: 		13.217877094972069
291: 		8.134078212290504
51: 		11.765363128491622
296: 		10.748603351955309

Germany

268: 		13.072625698324023
58: 		11.765363128491622
266: 		9.296089385474861
191: 		8.569832402234638
264: 		9.296089385474861


ZAC3
France 
202: 		13.508379888268157
51: 		11.765363128491622
294: 		10.603351955307264
291: 		8.134078212290504
268: 		7.988826815642459

Germany
268: 		13.072625698324023
264: 		9.296089385474861
191: 		8.569832402234638
266: 		9.296089385474861
58: 		11.765363128491622

HAMEAU
France

200: 		9.441340782122905
295: 		8.279329608938548
57: 		12.3463687150838
313:		12.491620111731844
118: 		9.441340782122905

Germany
58: 		11.910614525139666
60: 		9.005586592178771
189: 		8.279329608938548
227: 		7.40782122905028
216: 		15.39664804469274