;name;self_sufficiency;pv_gwp;battery_gwp;positive_feedback;cluster_file;cluster_weight;natural_self;yearly_cons_mwh;nb_years;co2_kg_mwh_not_discounted;co2_kg_not_discounted;co2_kg_mwh;co2_kg;pv_capacity;pv_capacity_yearlymwh;battery_kwh;battery_kwh_yearlymwh;capex;capex_yearlymwh
0;clustered_data_DE_2;0.0;1040;158;1;./data/clustered_data_DE_2.pickle;[14.960893854748605, 9.296089385474861, 8.134078212290504, 12.05586592178771, 7.5530726256983245];32.82815480140195;147.8884794331812;20.0;292.75;865898.23;292.75;865898.23;0.0;0.0;[0.0, 0.0, 0.0];[0.0, 0.0, 0.0];0.0;0.0
1;clustered_data_DE_2;0.1;1040;158;1;./data/clustered_data_DE_2.pickle;[14.960893854748605, 9.296089385474861, 8.134078212290504, 12.05586592178771, 7.5530726256983245];32.82815480140195;147.8884794331812;20.0;270.53;800167.24;268.3;793566.64;14.58;0.1;[0.0, 0.0, 0.0];[0.0, 0.0, 0.0];15165.28;103.0
2;clustered_data_DE_2;0.2;1040;158;1;./data/clustered_data_DE_2.pickle;[14.960893854748605, 9.296089385474861, 8.134078212290504, 12.05586592178771, 7.5530726256983245];32.82815480140195;147.8884794331812;20.0;250.01;739460.3;242.37;716879.59;30.05;0.2;[0.0, 0.0, 0.32];[0.0, 0.0, 0.0];31250.3;211.0
3;clustered_data_DE_2;0.3;1040;158;1;./data/clustered_data_DE_2.pickle;[14.960893854748605, 9.296089385474861, 8.134078212290504, 12.05586592178771, 7.5530726256983245];32.82815480140195;147.8884794331812;20.0;235.76;697311.52;211.53;625648.8;51.55;0.35;[33.42, 30.08, 37.07];[0.23, 0.2, 0.25];66089.58;447.0
4;clustered_data_DE_2;0.4;1040;158;1;./data/clustered_data_DE_2.pickle;[14.960893854748605, 9.296089385474861, 8.134078212290504, 12.05586592178771, 7.5530726256983245];32.82815480140195;147.8884794331812;20.0;225.98;668403.73;191.83;567375.81;70.55;0.48;[113.95, 96.07, 121.34];[0.77, 0.65, 0.82];115904.15;784.0
5;clustered_data_DE_2;0.5;1040;158;1;./data/clustered_data_DE_2.pickle;[14.960893854748605, 9.296089385474861, 8.134078212290504, 12.05586592178771, 7.5530726256983245];32.82815480140195;147.8884794331812;20.0;217.04;641942.98;175.14;518010.83;88.68;0.6;[194.7, 191.17, 194.52];[1.32, 1.29, 1.32];164907.75;1115.0
6;clustered_data_DE_2;0.6;1040;158;1;./data/clustered_data_DE_2.pickle;[14.960893854748605, 9.296089385474861, 8.134078212290504, 12.05586592178771, 7.5530726256983245];32.82815480140195;147.8884794331812;20.0;213.74;632200.47;119.18;352499.98;129.0;0.87;[274.73, 267.52, 236.64];[1.86, 1.81, 1.6];236709.41;1601.0
7;clustered_data_DE_2;0.7;1040;158;1;./data/clustered_data_DE_2.pickle;[14.960893854748605, 9.296089385474861, 8.134078212290504, 12.05586592178771, 7.5530726256983245];32.82815480140195;147.8884794331812;20.0;226.19;669028.04;-8.28;-24499.98;212.75;1.44;[353.41, 347.91, 320.7];[2.39, 2.35, 2.17];353178.17;2388.0
8;clustered_data_DE_2;0.8;1040;158;1;./data/clustered_data_DE_2.pickle;[14.960893854748605, 9.296089385474861, 8.134078212290504, 12.05586592178771, 7.5530726256983245];32.82815480140195;147.8884794331812;20.0;263.55;779533.53;-285.33;-843950.88;384.1;2.6;[415.49, 416.41, 355.62];[2.81, 2.82, 2.4];554557.25;3750.0
9;clustered_data_DE_2;0.85;1040;158;1;./data/clustered_data_DE_2.pickle;[14.960893854748605, 9.296089385474861, 8.134078212290504, 12.05586592178771, 7.5530726256983245];32.82815480140195;147.8884794331812;20.0;291.93;863452.98;-496.96;-1469885.72;511.75;3.46;[424.58, 422.69, 359.12];[2.87, 2.86, 2.43];690702.39;4670.0
10;clustered_data_DE_2;0.9;1040;158;1;./data/clustered_data_DE_2.pickle;[14.960893854748605, 9.296089385474861, 8.134078212290504, 12.05586592178771, 7.5530726256983245];32.82815480140195;147.8884794331812;20.0;337.23;997462.02;-725.22;-2145025.27;656.51;4.44;[532.58, 503.55, 436.71];[3.6, 3.4, 2.95];881569.13;5961.0
11;clustered_data_DE_2;0.95;1040;158;1;./data/clustered_data_DE_2.pickle;[14.960893854748605, 9.296089385474861, 8.134078212290504, 12.05586592178771, 7.5530726256983245];32.82815480140195;147.8884794331812;20.0;406.96;1203696.89;-986.61;-2918178.34;830.26;5.61;[775.86, 700.12, 597.05];[5.25, 4.73, 4.04];1153069.8;7797.0
12;clustered_data_DE_2;1.0;1040;158;1;./data/clustered_data_DE_2.pickle;[14.960893854748605, 9.296089385474861, 8.134078212290504, 12.05586592178771, 7.5530726256983245];32.82815480140195;147.8884794331812;20.0;607.1;1795667.05;-1184.08;-3502227.79;1037.57;7.02;[1849.13, 1942.29, 1487.93];[12.5, 13.13, 10.06];1769295.94;11964.0
